<?xml version="1.0" encoding="UTF-8" standalone="no"?>
<svg
   version="1.0"
   viewBox="0 0 30 30"
   id="svg16027"
   sodipodi:docname="linux-icon.svg"
   width="30"
   height="30"
   inkscape:version="1.2.1 (9c6d41e410, 2022-07-14)"
   xmlns:inkscape="http://www.inkscape.org/namespaces/inkscape"
   xmlns:sodipodi="http://sodipodi.sourceforge.net/DTD/sodipodi-0.dtd"
   xmlns="http://www.w3.org/2000/svg"
   xmlns:svg="http://www.w3.org/2000/svg">
  <defs
     id="defs16031" />
  <sodipodi:namedview
     id="namedview16029"
     pagecolor="#ffffff"
     bordercolor="#000000"
     borderopacity="0.25"
     inkscape:showpageshadow="2"
     inkscape:pageopacity="0.0"
     inkscape:pagecheckerboard="0"
     inkscape:deskcolor="#d1d1d1"
     showgrid="false"
     inkscape:zoom="52.666666"
     inkscape:cx="27.208861"
     inkscape:cy="14.06962"
     inkscape:window-width="3840"
     inkscape:window-height="2087"
     inkscape:window-x="0"
     inkscape:window-y="0"
     inkscape:window-maximized="1"
     inkscape:current-layer="svg16027" />
  <path
     d="m 14.978036,7.3303977 c 0,0.099328 -0.09933,0.099328 -0.09933,0.099328 h -0.09933 c -0.09933,0 -0.09933,-0.099328 -0.198657,-0.1986557 0,0 -0.09933,-0.099328 -0.09933,-0.1986557 0,-0.099328 0,-0.099328 0.09933,-0.099328 l 0.198657,0.099328 c 0.09933,0.099328 0.198655,0.1986557 0.198655,0.2979836 M 13.190133,6.3371188 c 0,-0.4966394 -0.198657,-0.794623 -0.496639,-0.794623 0,0 0,0.099328 -0.09933,0.099328 v 0.1986558 h 0.297982 c 0,0.1986558 0.09933,0.2979836 0.09933,0.4966394 h 0.198657 m 3.476474,-0.4966394 c 0.198656,0 0.297984,0.1986558 0.397312,0.4966394 h 0.198657 c -0.09933,-0.099328 -0.09933,-0.1986558 -0.09933,-0.2979836 0,-0.099328 0,-0.1986558 -0.09933,-0.2979838 -0.09932,-0.099328 -0.19865,-0.1986556 -0.297979,-0.1986556 0,0 -0.09933,0.099328 -0.198653,0.099328 0,0.099328 0.09933,0.099328 0.09933,0.1986557 m -2.979839,1.5892458 c -0.09933,0 -0.09933,0 -0.09933,-0.099328 0,-0.099328 0,-0.198656 0.09933,-0.2979837 0.198656,0 0.297985,-0.099328 0.297985,-0.099328 0.09933,0 0.09933,0.099328 0.09933,0.099328 0,0.099328 -0.09933,0.1986556 -0.297984,0.3973113 h -0.09933 m -1.092611,-0.099327 c -0.397312,-0.1986565 -0.49664,-0.4966401 -0.49664,-0.9932794 0,-0.2979836 0,-0.4966394 0.198656,-0.6952951 0.09933,-0.1986558 0.297984,-0.2979836 0.496639,-0.2979836 0.198656,0 0.297984,0.099328 0.496641,0.2979836 0.09933,0.2979836 0.198656,0.5959672 0.198656,0.8939508 v 0.1986559 h 0.09933 V 6.635102 c 0.09933,0 0.09933,-0.1986559 0.09933,-0.5959672 0,-0.2979838 0,-0.5959675 -0.198655,-0.8939511 -0.198656,-0.2979833 -0.397312,-0.496639 -0.794623,-0.496639 -0.297984,0 -0.595969,0.1986557 -0.695295,0.4966393 -0.198662,0.3973118 -0.238393,0.6952954 -0.238393,1.1919348 0,0.3973116 0.139057,0.7946229 0.53637,1.1919346 0.09933,-0.099328 0.198656,-0.099328 0.297984,-0.1986557 M 25.010151,21.335627 c 0.09933,0 0.09933,-0.03973 0.09933,-0.129125 0,-0.218522 -0.09933,-0.476775 -0.397312,-0.764824 -0.297984,-0.297985 -0.794623,-0.486708 -1.39059,-0.566169 -0.09933,-0.01004 -0.198655,-0.01004 -0.198655,-0.01004 -0.09933,-0.01986 -0.09933,-0.01986 -0.198657,-0.01986 -0.09933,-0.01004 -0.297982,-0.0298 -0.39731,-0.04966 0.297982,-0.92375 0.39731,-1.738238 0.39731,-2.453399 0,-0.993279 -0.198655,-1.688575 -0.595967,-2.284541 -0.397311,-0.595967 -0.794622,-0.893951 -1.291261,-0.993279 -0.09933,0.09933 -0.09933,0.09933 -0.09933,0.198657 0.496639,0.198655 0.993279,0.595966 1.291261,1.191933 0.297985,0.695294 0.397312,1.291263 0.397312,1.986558 0,0.556235 -0.09933,1.380657 -0.49664,2.433533 -0.397311,0.158927 -0.794623,0.526438 -1.092605,1.10254 0,0.08939 0,0.139058 0.09933,0.139058 0,0 0.09933,-0.08939 0.198654,-0.258253 0.198657,-0.168861 0.297985,-0.337715 0.49664,-0.506572 0.297982,-0.16886 0.496639,-0.258251 0.794624,-0.258251 0.496639,0 0.993278,0.06953 1.291261,0.208586 0.397312,0.129125 0.595968,0.268186 0.695296,0.42711 0.09933,0.14899 0.198655,0.288051 0.297984,0.417179 0,0.129125 0.09933,0.188721 0.09933,0.188721 M 15.871985,6.933086 c -0.09933,-0.099328 -0.09933,-0.2979836 -0.09933,-0.4966394 0,-0.3973114 0,-0.5959672 0.198654,-0.8939508 0.198655,-0.1986557 0.397312,-0.2979836 0.595969,-0.2979836 0.297982,0 0.496638,0.1986557 0.695294,0.3973115 0.09933,0.2979836 0.198655,0.4966393 0.198655,0.7946229 0,0.4966394 -0.198655,0.7946231 -0.595967,0.8939511 0,0 0.09933,0.099328 0.198656,0.099328 0.198656,0 0.297984,0.099328 0.496639,0.1986558 0.09933,-0.5959672 0.198655,-0.9932787 0.198655,-1.4899183 0,-0.5959672 -0.09933,-0.9932787 -0.297983,-1.2912623 -0.297982,-0.2979836 -0.595967,-0.3973115 -0.993278,-0.3973115 -0.297985,0 -0.595969,0.099328 -0.893951,0.2979836 -0.198656,0.2979836 -0.297983,0.4966394 -0.297983,0.794623 0,0.4966395 0.09933,0.8939508 0.297983,1.2912625 0.09933,0 0.198657,0.099328 0.297982,0.099328 m 1.191936,1.5892455 c -1.291261,0.8939511 -2.28454,1.2912619 -3.079164,1.2912619 -0.695295,0 -1.39059,-0.2979826 -1.986557,-0.7946232 0.09933,0.1986563 0.198654,0.3973124 0.297982,0.4966406 l 0.595968,0.5959667 c 0.397312,0.397313 0.893951,0.595967 1.390592,0.595967 0.695294,0 1.489918,-0.397311 2.483194,-1.0926056 l 0.893951,-0.5959687 c 0.198657,-0.1986543 0.397313,-0.3973106 0.397313,-0.695295 0,-0.09933 0,-0.1986546 -0.09933,-0.1986546 C 17.858542,7.9263654 17.361898,7.6283818 16.368619,7.3303982 15.474668,6.9330867 14.779373,6.734431 14.382061,6.734431 c -0.297983,0 -0.794623,0.1986557 -1.489918,0.5959672 -0.595968,0.3973115 -0.993279,0.7946229 -0.993279,1.1919338 0,0 0.09933,0.09933 0.198655,0.2979844 0.595969,0.4966386 1.191936,0.794623 1.787903,0.794623 0.794624,0 1.787903,-0.3973124 3.079164,-1.3905899 v 0.1986543 c 0.09933,0 0.09933,0.09933 0.09933,0.09933 m 2.28454,20.0642312 c 0.397311,0.746947 1.092608,1.122406 1.887232,1.122406 0.198653,0 0.39731,-0.0298 0.595965,-0.08939 0.198656,-0.03973 0.397312,-0.10926 0.496639,-0.188724 0.09933,-0.06953 0.198657,-0.139058 0.297985,-0.218519 0.198654,-0.06953 0.198654,-0.119193 0.297983,-0.168862 l 1.688574,-1.46012 c 0.397312,-0.316856 0.794623,-0.593981 1.291262,-0.834355 0.397313,-0.238386 0.794624,-0.397312 0.993279,-0.486706 0.297985,-0.07946 0.496642,-0.198655 0.695295,-0.35758 0.09933,-0.14899 0.198657,-0.337716 0.198657,-0.576102 0,-0.288052 -0.198657,-0.506571 -0.39731,-0.665496 -0.198657,-0.158929 -0.397314,-0.268185 -0.595969,-0.337714 -0.198655,-0.06953 -0.397312,-0.228456 -0.695296,-0.496642 -0.198656,-0.258251 -0.39731,-0.615832 -0.496639,-1.082673 l -0.09933,-0.576102 c -0.09933,-0.268186 -0.09933,-0.466841 -0.198657,-0.5761 0,-0.0298 0,-0.03973 -0.09933,-0.03973 -0.09933,0 -0.297982,0.08939 -0.39731,0.258253 -0.198656,0.16886 -0.397312,0.357579 -0.595968,0.556236 -0.09933,0.198654 -0.397312,0.377445 -0.595968,0.546304 -0.297982,0.16886 -0.595966,0.258253 -0.794623,0.258253 -0.794622,0 -1.191934,-0.218522 -1.489918,-0.645632 -0.198655,-0.317849 -0.297982,-0.685363 -0.39731,-1.102541 -0.198657,-0.168861 -0.297985,-0.258252 -0.496639,-0.258252 -0.49664,0 -0.695297,0.516507 -0.695297,1.559448 v 3.089099 c 0,0.08939 -0.09933,0.288049 -0.09933,0.595965 -0.09933,0.307917 -0.09933,0.65755 -0.09933,1.052876 l -0.198657,1.102538 v 0.01688 M 4.9459183,28.05814 c 0.9237492,0.135088 1.9865575,0.424129 3.188425,0.865145 1.2018673,0.437042 1.9368937,0.665497 2.2050787,0.665497 0.695295,0 1.271397,-0.307916 1.748171,-0.90289 0.09933,-0.192697 0.09933,-0.419164 0.09933,-0.679402 0,-0.938649 -0.566167,-2.125617 -1.698505,-3.565872 L 9.8129845,23.536733 C 9.6739254,23.348012 9.5050681,23.059961 9.2865467,22.672582 9.0779582,22.285204 8.8892352,21.987219 8.7402434,21.77863 8.6111171,21.550176 8.4025284,21.321723 8.1343433,21.093268 7.8760908,20.864815 7.5781072,20.715823 7.2503251,20.63636 c -0.4171769,0.07946 -0.7052278,0.218522 -0.844287,0.407245 -0.1390591,0.188724 -0.2185213,0.39731 -0.2383869,0.615832 -0.029799,0.208588 -0.089396,0.347649 -0.188723,0.417178 -0.099328,0.0596 -0.2681852,0.109259 -0.4966394,0.158927 -0.049663,0 -0.1390576,0 -0.2681852,0.01004 H 4.9459183 c -0.5264378,0 -0.8840181,0.0596 -1.0727411,0.158928 -0.2483198,0.288051 -0.3774461,0.615832 -0.3774461,0.963479 0,0.158929 0.039732,0.427112 0.1191938,0.804557 0.079461,0.367514 0.1191938,0.665497 0.1191938,0.874085 0,0.407245 -0.1191938,0.81449 -0.3675132,1.221733 -0.2483197,0.427111 -0.3774462,0.74496 -0.3774462,0.971427 0.099328,0.385393 0.7548922,0.656558 1.9567595,0.815483 M 8.2535372,19.02637 c 0,-0.685363 0.1787902,-1.440256 0.5463034,-2.334207 0.3575804,-0.893951 0.7151608,-1.489918 1.0628083,-1.887229 -0.019865,-0.09933 -0.069529,-0.09933 -0.1489918,-0.09933 l -0.099328,-0.09933 c -0.2880525,0.297926 -0.6357,0.993222 -1.0528772,1.986498 -0.4171769,0.893952 -0.6356982,1.718374 -0.6356982,2.324274 0,0.446976 0.109261,0.834353 0.3079164,1.172069 0.2185214,0.327782 0.744959,0.804557 1.5793133,1.410457 l 1.0528756,0.685361 c 1.122405,0.973414 1.718372,1.648843 1.718372,2.046155 0,0.208588 -0.09933,0.417177 -0.397312,0.64563 -0.198655,0.238388 -0.46684,0.35758 -0.695295,0.35758 -0.01986,0 -0.0298,0.01986 -0.0298,0.06953 0,0.01004 0.09933,0.208589 0.307917,0.595969 0.417177,0.566167 1.311128,0.844285 2.503063,0.844285 2.185214,0 3.873788,-0.89395 5.16505,-2.681854 0,-0.496638 0,-0.804553 -0.09933,-0.933681 v -0.367512 c 0,-0.645631 0.09933,-1.132339 0.297985,-1.450188 0.198653,-0.31785 0.39731,-0.466841 0.695294,-0.466841 0.198657,0 0.397312,0.06953 0.595967,0.218523 0.09933,-0.764826 0.09933,-1.430322 0.09933,-2.02629 0,-0.903883 0,-1.648844 -0.198655,-2.344139 -0.09933,-0.595967 -0.297984,-1.092605 -0.496639,-1.489918 l -0.595966,-0.894 C 19.537183,14.0102 19.437855,13.712215 19.2392,13.414233 19.13987,13.016921 19.040543,12.718936 19.040543,12.222297 18.742561,11.725659 18.543904,11.229018 18.245919,10.732379 18.047266,10.235741 17.848609,9.7391 17.649954,9.3417894 l -0.893952,0.6952946 c -0.993277,0.695295 -1.787901,0.99328 -2.483195,0.99328 -0.595969,0 -1.092607,-0.09933 -1.390592,-0.496641 l -0.595967,-0.496639 c 0,0.297985 -0.09933,0.695295 -0.297983,1.092606 l -0.625766,1.191936 c -0.278118,0.695295 -0.42711,1.092607 -0.456909,1.390589 -0.03973,0.198657 -0.06953,0.397313 -0.0894,0.397313 l -0.744959,1.489919 c -0.8045553,1.489918 -1.2117997,2.870575 -1.2117997,4.012844 0,0.228453 0.019865,0.466842 0.059596,0.705228 C 8.4720581,20.009602 8.2535366,19.582492 8.2535366,19.026257 m 7.1118764,9.396416 c -1.291262,0 -2.284542,0.174817 -2.979837,0.521472 v -0.0298 c -0.496639,0.595969 -1.052875,0.903885 -1.827633,0.903885 -0.486706,0 -1.2515306,-0.188724 -2.2845407,-0.566169 C 7.2304597,28.894483 6.3067104,28.620338 5.5021545,28.439561 5.422693,28.416715 5.2439019,28.382947 4.955851,28.337253 4.6777331,28.292548 4.4194805,28.246855 4.1910265,28.201177 3.982438,28.156488 3.7440509,28.088936 3.4857983,27.997555 3.2374786,27.919098 3.0388229,27.816782 2.8898311,27.692619 2.7527601,27.567464 2.6852157,27.42642 2.6852157,27.268489 c 0,-0.158928 0.033773,-0.328775 0.1013149,-0.509552 0.063569,-0.109259 0.1330979,-0.218522 0.2026287,-0.31785 0.069529,-0.10926 0.129128,-0.208588 0.1688574,-0.307916 0.059596,-0.08939 0.099328,-0.178793 0.1390591,-0.278119 0.039732,-0.08939 0.079461,-0.178793 0.099328,-0.28805 0.019865,-0.09933 0.039732,-0.198656 0.039732,-0.297983 0,-0.09933 -0.039732,-0.397313 -0.1191938,-0.92375 -0.079461,-0.516506 -0.1191937,-0.844286 -0.1191937,-0.983346 0,-0.437043 0.099328,-0.78469 0.3178493,-1.03301 0.2185213,-0.248319 0.4271098,-0.377447 0.6456312,-0.377447 h 1.1422707 c 0.089396,0 0.228454,-0.04966 0.4370426,-0.16886 0.069529,-0.158928 0.1291264,-0.28805 0.1688573,-0.407243 0.049663,-0.119193 0.069529,-0.20859 0.089396,-0.248321 0.019865,-0.0596 0.039731,-0.119192 0.059596,-0.16886 0.039731,-0.06953 0.089396,-0.14899 0.1589243,-0.228456 -0.079461,-0.09933 -0.1191937,-0.228453 -0.1191937,-0.387378 0,-0.109259 0,-0.208588 0.019865,-0.268184 0,-0.357581 0.1688574,-0.864153 0.5264378,-1.52965 l 0.3476472,-0.625766 c 0.2880509,-0.536369 0.5065721,-0.933681 0.6654967,-1.330993 0.1688575,-0.39731 0.3476477,-0.993276 0.5463033,-1.7879 0.1589247,-0.695296 0.5363707,-1.39059 1.1323379,-2.085887 L 10.08117,11.820019 c 0.516505,-0.595969 0.85422,-1.092608 1.042942,-1.489919 0.188723,-0.3973121 0.288051,-0.8939509 0.288051,-1.2912634 0,-0.1986543 -0.04966,-0.794623 -0.158924,-1.7879013 -0.09933,-0.9932787 -0.148992,-1.9865576 -0.148992,-2.8805086 0,-0.6952952 0.0596,-1.1919345 0.188723,-1.688574 C 11.422096,2.1852135 11.65055,1.688574 11.988265,1.2912625 12.286248,0.89395081 12.68356,0.49663944 13.279528,0.2979836 13.875495,0.09932792 14.570789,0 15.365413,0 c 0.297984,0 0.595966,0 0.89395,0.09932838 0.297985,0 0.695295,0.09932839 1.191936,0.29798361 0.39731,0.19865568 0.79462,0.39731167 1.092605,0.69529531 0.397312,0.2979836 0.695296,0.7946229 0.993279,1.2912623 0.198657,0.5959672 0.397311,1.1919347 0.496639,1.9865576 0.09933,0.4966395 0.09933,0.9932787 0.198657,1.688574 0,0.5959674 0.09933,0.9932788 0.09933,1.2912625 0.09933,0.2979836 0.09933,0.695295 0.198655,1.1919346 0.09933,0.3973106 0.198655,0.794623 0.397312,1.0926055 0.198655,0.3973122 0.397311,0.7946232 0.695294,1.1919352 0.297985,0.496639 0.695296,0.99328 1.092608,1.589247 0.89395,0.993279 1.589246,2.085885 1.986557,3.178493 0.496638,0.993276 0.794623,2.28454 0.794623,3.665197 0,0.685362 -0.09933,1.350859 -0.297985,1.99649 0.198657,0 0.297985,0.07946 0.397312,0.218522 0.09933,0.139057 0.198657,0.437043 0.297985,0.903885 l 0.09933,0.735025 c 0.09933,0.218522 0.198656,0.427108 0.496641,0.6059 0.198656,0.178793 0.39731,0.327783 0.695295,0.446975 0.198656,0.09933 0.496639,0.238388 0.695294,0.417179 0.198657,0.198654 0.297985,0.407243 0.297985,0.625764 0,0.337716 -0.09933,0.586036 -0.297985,0.764826 -0.198655,0.198655 -0.397312,0.337714 -0.695294,0.42711 -0.198656,0.09933 -0.595967,0.297983 -1.191936,0.578086 -0.496639,0.294011 -0.993277,0.650599 -1.489918,1.072741 l -0.993277,0.845282 c -0.397312,0.387378 -0.794624,0.665496 -1.092608,0.834353 C 22.119701,29.910609 21.722391,30 21.325077,30 l -0.695294,-0.07946 c -0.794618,-0.20859 -1.291256,-0.605902 -1.58924,-1.211802 -1.589244,-0.192695 -2.880507,-0.288051 -3.67513,-0.288051"
     id="path16025"
     style="stroke-width:1;fill-opacity:1;fill:currentColor;stroke-dasharray:none" />
</svg>
